^C:\USERS\TOMERIQ\DOWNLOADS\GALLERY\ALBUM.CPP|C:\USERS\TOMERIQ\DOWNLOADS\GALLERY\ALBUMMANAGER.CPP|C:\USERS\TOMERIQ\DOWNLOADS\GALLERY\GALLERY.CPP|C:\USERS\TOMERIQ\DOWNLOADS\GALLERY\MEMORYACCESS.CPP|C:\USERS\TOMERIQ\DOWNLOADS\GALLERY\PICTURE.CPP|C:\USERS\TOMERIQ\DOWNLOADS\GALLERY\USER.CPP
C:\USERS\TOMERIQ\DOWNLOADS\GALLERY\DEBUG\VC141.PDB
C:\USERS\TOMERIQ\DOWNLOADS\GALLERY\DEBUG\VC141.IDB
C:\USERS\TOMERIQ\DOWNLOADS\GALLERY\DEBUG\GALLERY.OBJ
C:\USERS\TOMERIQ\DOWNLOADS\GALLERY\DEBUG\USER.OBJ
C:\USERS\TOMERIQ\DOWNLOADS\GALLERY\DEBUG\PICTURE.OBJ
C:\USERS\TOMERIQ\DOWNLOADS\GALLERY\DEBUG\MEMORYACCESS.OBJ
C:\USERS\TOMERIQ\DOWNLOADS\GALLERY\DEBUG\ALBUMMANAGER.OBJ
C:\USERS\TOMERIQ\DOWNLOADS\GALLERY\DEBUG\ALBUM.OBJ
^C:\USERS\TOMERIQ\DOWNLOADS\GALLERY\ALBUM.CPP
C:\USERS\TOMERIQ\DOWNLOADS\GALLERY\DEBUG\VC141.PDB
^C:\USERS\TOMERIQ\DOWNLOADS\GALLERY\ALBUMMANAGER.CPP
C:\USERS\TOMERIQ\DOWNLOADS\GALLERY\DEBUG\VC141.PDB
^C:\USERS\TOMERIQ\DOWNLOADS\GALLERY\MEMORYACCESS.CPP
C:\USERS\TOMERIQ\DOWNLOADS\GALLERY\DEBUG\VC141.PDB
^C:\USERS\TOMERIQ\DOWNLOADS\GALLERY\PICTURE.CPP
C:\USERS\TOMERIQ\DOWNLOADS\GALLERY\DEBUG\VC141.PDB
^C:\USERS\TOMERIQ\DOWNLOADS\GALLERY\USER.CPP
C:\USERS\TOMERIQ\DOWNLOADS\GALLERY\DEBUG\VC141.PDB
^C:\USERS\TOMERIQ\DOWNLOADS\GALLERY\GALLERY.CPP
C:\USERS\TOMERIQ\DOWNLOADS\GALLERY\DEBUG\VC141.PDB
